{
    "data_preprocess": {
        "input_file": "/data/web_1_sec.csv",
        "mounted_path": "/data/",
        "master_path": "data_FILE_CUTTING_SPLIT_RW/",
        "data_path": "data/",
        "train_file": "train.csv",
        "validate_file": "validate.csv",
        "train_file_seq": "train_seq.txt",
        "validate_file_seq": "validate_seq.txt",
        "logfile": "log_file.txt",
        "logfile_train": "log_train.txt",
        "logfile_test": "log_test.txt",
        "logfile_inference": "log_inference.txt",
        "train_split_ratio": 0.8,
        "validate_result": "result.csv",
        "seed": 5,
        "cutting_window": 1,
        "use_read_write_operation_feature": true,
        "convert_mode": {
            "snia_op": {"W": "Write", "WM": "Write", "WS" : "Write", "WBS" : "Write", "R": "Read", "RM": "Read", "RA": "Read", "FWFS": "Write", "WFS": "Write", "Read": "Read", "Write": "Write"},
            "op_val": {"Read": 0, "Write": 1}
        },
        "folders": ["data", "algo", "algo/pg", "algo/bn", "algo/lstm", "algo/fasttext","algo/w2vec","algo/fasttext/model","algo/w2vec/model","algo/fasttext/result","algo/w2vec/result","algo/lstm/model", "algo/lstm/pickle", "analysis", "plots","plots/mapping"],
        "analysis_path": "analysis/",
        "cutting_windows": [1.0, 0.1, 0.01, 0.001],
        "max_gram": 50,
        "seqlen_file": "seqlen_analysis_CW_sec.csv",
        "ngram_file": "ngram_analysis_CW_sec.csv",
        "bucket_temp":  [0, 1, 2, 3, 4, 5, 10, 50, 100, 1000],
        "label_temp": ["1", "2", "3", "4", "5", "6-10", "11-50", "51-100", "101-1000", ">1000"]
    },
    "model": {
      "pg_bn": {
        "model_path_pg": "algo/pg/",
        "model_path_bn": "algo/bn/",
        "output_files": {
          "train_split_seq": "Output_Sqn_SEQ_BLOCK.pkl",
          "pg_split": "dict_VAL.pkl",
          "bn_split": "dict_VAL.pkl"
        },
        "lookahead_window": 5,
        "topk_neighbor_predict_counts": 1,
        "seq_splitter_length": 5,
        "block_splitter_length": 5,
        "hostname": "0.0.0.0",
        "pg_api_port": 8000,
        "bn_api_port": 7000
      }
    }
}
